pmid,geneId,diseaseId,label
10579720,109676,D001145,1.0
10579720,109676,D003645,1.0
10579720,109676,D007738,1.0
10579720,109676,D009135,1.0
10579720,109676,D009140,1.0
10579720,109676,D018908,1.0
10579720,109676,D066087,1.0
14710238,2315,D008545,1.0
15199386,672,D001943,1.0
15199386,675,D001943,1.0
15354209,7422,C538614,1.0
15354209,7422,D015179,1.0
15354209,7422,D029461,1.0
16333304,2113,D001943,1.0
16781449,4843,C563177,1.0
16781449,4843,D000257,1.0
16781449,4843,D000402,1.0
16781449,4843,D001102,1.0
16781449,4843,D001249,1.0
16781449,4843,D003550,1.0
16781449,4843,D003643,1.0
16781449,4843,D007239,1.0
16781449,4843,D007249,1.0
16781449,4843,D008171,1.0
16781449,4843,D011014,1.0
16781449,4843,D018496,1.0
16963499,54487,D004062,1.0
18398271,2908,D003480,1.0
18398271,2908,D004342,1.0
18752632,23405,D000077192,1.0
18752632,23405,D000230,1.0
18752632,23405,D002289,1.0
18752632,23405,D008175,1.0
18752632,23405,D011471,1.0
18752632,23405,D011472,1.0
18752632,23405,D015179,0.5
18752632,23405,D018277,1.0
18752632,23405,D019048,1.0
18836991,2034,D006623,1.0
18836991,3091,D006130,1.0
18836991,3091,D006623,1.0
18836991,3091,D008637,1.0
18836991,3091,D018325,1.0
18836991,7422,D018325,1.0
19059699,4352,C535982,1.0
19059699,4352,C536227,1.0
19059699,4352,D000740,1.0
19059699,4352,D001855,1.0
19059699,4352,D006470,1.0
19059699,4352,D007938,1.0
19059699,4352,D011696,1.0
19059699,4352,D013163,1.0
19059699,4352,D013921,1.0
19059699,4352,D013922,1.0
19059699,4352,D019337,1.0
19168076,7474,D008545,1.0
19191756,2796,D016301,1.0
19191756,8600,D016301,1.0
19367282,4255,D008545,1.0
19813621,596,D009369,1.0
19818716,3551,C563003,1.0
19818716,3551,C564433,1.0
19818716,3551,D001943,1.0
19818716,3551,D007249,1.0
19818716,8452,D001943,1.0
19818716,8452,D004938,1.0
19818716,9817,C563003,1.0
19818716,9817,C564433,1.0
19818716,9817,D001943,1.0
19818716,9817,D005706,1.0
19818716,9817,D006528,1.0
19818716,9817,D007249,1.0
19818716,9817,D008175,1.0
19818716,9817,D009422,1.0
19830172,3479,D006130,1.0
20058253,2064,D002609,1.0
20541258,1082,D017359,1.0
20541258,2321,D017359,1.0
20541258,3623,D017359,1.0
20541258,3952,D017359,1.0
20541258,3972,D017359,1.0
20541258,4257,D017359,1.0
20541258,50649,D017359,1.0
20541258,970,D017359,1.0
20633576,24,D000080362,1.0
20633576,6785,D000080362,1.0
20806040,6010,C538365,1.0
20806040,6010,D012162,1.0
21147502,2064,D010051,1.0
21147502,2064,D011472,1.0
21147502,2064,D013274,1.0
21364575,672,D001943,1.0
21364575,675,D001943,1.0
21396159,3557,D001172,1.0
21396159,3557,D007249,1.0
21396159,3557,D009422,1.0
21483654,2100,D015179,1.0
21483654,3845,D015179,1.0
21483654,4513,D015179,1.0
21483654,7157,D015179,1.0
21679011,7052,D006223,1.0
21876700,2353,D004402,1.0
21876700,2353,D014947,1.0
21983962,4790,D007511,1.0
21983962,54583,D007511,1.0
21985690,6532,D009771,1.0
22178269,3091,D006526,1.0
22178269,3091,D006528,1.0
22178269,7040,D006528,1.0
22178269,7422,D006528,1.0
22187572,967,D004342,1.0
22237039,5243,D018088,1.0
22337246,1401,D007037,1.0
22421041,94,D001165,1.0
22421041,94,D013683,1.0
22429809,100128998,D007238,1.0
22429809,100128998,D007511,1.0
22547706,58484,D001424,1.0
22547706,58484,D007249,1.0
22547706,58484,D011014,1.0
22566904,8651,D007249,1.0
22566904,9021,D004342,1.0
22566904,9021,D007249,1.0
22566904,9021,D014123,1.0
22740686,5133,D001102,1.0
22740686,5133,D018198,1.0
22787480,5816,D001930,1.0
22787480,5816,D003324,1.0
22787480,5816,D007511,1.0
22787480,5816,D009410,1.0
22787480,5816,D020244,1.0
22988441,1080,D003550,1.0
22988441,142,D003550,1.0
23225887,3553,D007249,1.0
23267373,6863,D006261,1.0
23384018,27032,D016506,1.0
23468924,57369,C566719,1.0
23468924,57369,D000070642,1.0
23468924,57369,D007511,1.0
23468924,57369,D012162,1.0
23506384,5020,D001321,1.0
23588304,1312,D034381,1.0
23588304,7172,D034381,1.0
23588304,8714,D006311,1.0
23588304,8714,D008175,1.0
23588304,8714,D034381,1.0
23589626,126820,D018268,1.0
23589626,202915,D018268,0.5
23589626,2307,D018268,0.5
23589626,64129,D018268,0.5
23589626,79644,D018268,0.5
23634903,10397,D007680,1.0
23634903,10397,D009362,1.0
23634903,10397,D009369,1.0
23634903,10397,D010051,1.0
23634903,10397,D010190,1.0
23634903,10397,D011471,1.0
23761016,5080,D015783,1.0
23761016,5080,D017624,1.0
23762114,6622,D000544,1.0
23762114,6622,D003643,1.0
23762114,6622,D009410,1.0
23762114,6622,D010300,1.0
23762114,6622,D020258,1.0
23762114,6647,C564093,1.0
23762114,6647,C565957,1.0
23762114,6647,D000544,1.0
23762114,6647,D001523,1.0
23762114,6647,D006331,1.0
23762114,6647,D010300,1.0
23762114,6647,D016472,1.0
23762114,6647,D019636,1.0
23762114,6647,D028361,1.0
23762114,6647,D066263,1.0
23822584,3359,D000437,1.0
23822584,3359,D004342,1.0
23898467,13917718,C565785,1.0
23898467,13917718,D010930,1.0
23898467,13917718,D011014,1.0
23898467,13917718,D017093,1.0
23898467,13917718,D018805,1.0
23898467,13917718,D025861,1.0
24003385,5741,D001249,1.0
24015288,833768,D028361,1.0
24069431,1543,D008175,1.0
24069431,1571,D008175,1.0
24080184,6548,D000275,1.0
24080184,6548,D002318,1.0
24080184,6548,D003645,1.0
24080184,6548,D003920,1.0
24080184,6548,D004194,1.0
24080184,6548,D004827,1.0
24080184,6548,D005234,1.0
24080184,6548,D005355,1.0
24080184,6548,D006130,1.0
24080184,6548,D006331,1.0
24080184,6548,D006332,1.0
24080184,6548,D006333,1.0
24080184,6548,D006973,1.0
24080184,6548,D006980,1.0
24080184,6548,D006984,1.0
24080184,6548,D007238,1.0
24080184,6548,D007511,1.0
24080184,6548,D008103,1.0
24080184,6548,D008659,1.0
24080184,6548,D009202,1.0
24080184,6548,D009203,1.0
24080184,6548,D015427,1.0
24080184,6548,D015430,1.0
24080184,6548,D058186,1.0
24117827,4067,D007249,1.0
24143102,404677,D012559,1.0
24143102,404677,D050197,1.0
24160453,5770,D009765,1.0
24186967,3684,D007238,1.0
24186967,5788,D007249,1.0
24373538,361,D004660,1.0
24373538,361,D009187,1.0
24373684,1136,D001982,1.0
24373684,4049,D004485,1.0
24373684,59067,D004342,1.0
24373684,6362,D003876,1.0
24373684,6362,D004342,1.0
24509439,2335,D005355,1.0
24509439,2335,D009369,1.0
24509439,2335,D018805,1.0
24509439,2335,D050197,1.0
24620788,404677,D000419,1.0
24620788,404677,D009220,1.0
24650018,114548,D005234,1.0
24650018,3553,D005234,1.0
24650018,4615,D005234,1.0
24650018,54106,D005234,1.0
24650275,2688,C535694,1.0
24650275,2688,D005221,1.0
24792912,3587,D007249,1.0
24792912,3588,D003092,1.0
24792912,3588,D007249,1.0
24809021,1116,D005909,1.0
24809021,1116,D005910,1.0
24809021,1116,D009837,1.0
24809021,1116,D010020,1.0
24898186,79585,D010146,1.0
25043992,3553,D008569,1.0
25273894,5243,C564766,1.0
25273894,5243,D003550,1.0
25273894,5243,D064420,1.0
25491605,5578,D007247,1.0
25491605,5578,D010051,1.0
25491605,5580,D010051,1.0
25491605,5581,D010051,1.0
25551576,11006,D007249,1.0
25551576,11006,D009103,1.0
25657186,10590,D020521,1.0
25657186,1956,D020521,1.0
25657186,2026,D020521,1.0
25657186,2244,D020521,1.0
25657186,2670,D020521,1.0
25657186,3569,D020521,1.0
25657186,4155,D020521,1.0
25657186,4318,D020521,1.0
25657186,4879,D020521,1.0
25657186,4908,D020521,0.5
25657186,5617,D020521,1.0
25657186,6283,D020521,1.0
25657186,6285,D020521,1.0
25657186,6347,D020521,1.0
25657186,6356,D020521,1.0
25657186,7079,D020521,1.0
25657186,7450,D020521,1.0
25657186,836,D020521,1.0
25825024,668542,D001168,1.0
25825024,668542,D001172,1.0
25825024,668542,D016301,1.0
25852568,3553,D005221,1.0
25905096,155871,D015658,1.0
25905096,156110,D015658,1.0
25905096,920,D015658,1.0
25940564,7276,C567782,1.0
25940564,7276,D001172,1.0
25940564,7276,D002349,1.0
25940564,7276,D002357,1.0
25940564,7276,D003643,1.0
25940564,7276,D007249,1.0
25940564,7276,D009101,1.0
25940564,7276,D009202,1.0
25940564,7276,D010003,1.0
25940564,7276,D014693,1.0
25940564,7276,D028227,1.0
25940564,7276,D064420,1.0
25946018,3553,D002006,1.0
25946018,7099,D001424,1.0
25946018,7099,D002006,1.0
25946018,7124,D002006,1.0
25960081,529,D000544,1.0
25960081,529,D001008,1.0
25960081,529,D001523,1.0
25960081,529,D007511,1.0
25960081,529,D019636,1.0
25960081,529,D019964,1.0
26061049,1030,D056735,1.0
26143012,2030,D012892,1.0
26143012,2030,D012893,1.0
26243863,2064,D000077192,1.0
26243863,2064,D001749,1.0
26243863,2064,D001943,1.0
26243863,2064,D002289,1.0
26243863,2064,D003123,1.0
26243863,2064,D004938,1.0
26243863,2064,D005909,1.0
26243863,2064,D013274,1.0
26243863,2064,D015179,1.0
26316238,2488,C536309,1.0
26316238,2488,D010049,1.0
26316238,2488,D010051,1.0
26338969,1645,D008175,1.0
26338969,406958,D008175,1.0
26338969,5055,D005354,1.0
26338969,5055,D008175,1.0
26338969,7779,D008175,1.0
26410082,1956,D009362,1.0
26410082,2064,D001943,1.0
26410082,2064,D009362,1.0
26410082,4609,D009362,1.0
26410082,5728,D009362,1.0
26410082,673,D015179,1.0
26412311,4282,D007674,1.0
26412311,7295,D007674,1.0
26412311,7295,D012206,1.0
26412311,7295,D058186,1.0
26716506,2064,D001523,1.0
26716506,2064,D001943,1.0
26716506,2064,D009369,1.0
26716506,2064,D009422,1.0
26716506,9564,D001943,1.0
26844115,1401,D009765,1.0
26844115,3569,D007249,1.0
26844115,3569,D009765,1.0
26852130,672,D001943,1.0
26852130,672,D010051,1.0
26852130,672,D018567,1.0
26852130,672,D061325,1.0
26852130,675,D001943,1.0
26852130,675,D010051,1.0
26852130,675,D018567,1.0
26852130,675,D061325,1.0
26936326,10079,D005355,1.0
26936326,3162,D005355,1.0
27069490,100009452,D007511,1.0
27069490,100009452,D015427,1.0
27070462,1385,C567932,1.0
27070462,5744,C567932,1.0
27070462,820,C567932,1.0
27078154,348,D000544,1.0
27078154,348,D001289,1.0
27078154,348,D001321,1.0
27078154,348,D001523,1.0
27078154,348,D001714,1.0
27078154,348,D002318,1.0
27078154,348,D003324,1.0
27078154,348,D003865,1.0
27078154,348,D003920,1.0
27078154,348,D003924,1.0
27078154,348,D004194,1.0
27078154,348,D012559,1.0
27078154,348,D016584,1.0
27222925,5354,C537538,1.0
27222925,5354,C563789,1.0
27222925,5354,D001259,1.0
27222925,5354,D001480,1.0
27222925,5354,D001523,1.0
27222925,5354,D001630,1.0
27222925,5354,D003072,1.0
27222925,5354,D003643,1.0
27222925,5354,D003711,1.0
27222925,5354,D007249,1.0
27222925,5354,D007966,1.0
27222925,5354,D009103,1.0
27222925,5354,D009123,1.0
27222925,5354,D009128,1.0
27222925,5354,D009410,1.0
27222925,5354,D009422,1.0
27222925,5354,D009461,1.0
27222925,5354,D009759,1.0
27222925,5354,D011782,1.0
27222925,5354,D020279,1.0
27222925,5354,D020371,1.0
27222925,5354,D030342,1.0
27222925,5354,OMIM:608852,1.0
27281198,6323,D010146,1.0
27364353,4908,D000755,1.0
27364353,4908,D013119,1.0
27364353,627,D000755,1.0
27364353,627,D013119,1.0
27485030,944569,D006509,1.0
27506764,1756,D020388,1.0
27506764,735275,D020388,1.0
27525306,3082,D008175,1.0
27525306,4233,D008175,1.0
27540513,1636,D011507,1.0
27596437,1788,D007249,1.0
27596437,23405,D007249,1.0
27596437,3553,D007249,1.0
27596437,3569,D007249,1.0
27596437,3656,D007249,1.0
27596437,4792,D007249,1.0
27596437,4843,D007249,1.0
27596437,6657,D007249,1.0
27596437,7099,D007249,1.0
27596437,7132,D007249,1.0
27751272,2147,D009203,0.5
27751272,2153,D009203,0.5
27751272,2244,D009203,0.5
27785854,3267210,D006130,1.0
27785854,3267210,D064420,1.0
27790004,4512,D014456,1.0
27790004,4513,D010003,1.0
27790004,4513,D014456,1.0
27790004,495,D010003,1.0
27790004,495,D014456,1.0
27843468,1636,D005776,1.0
27843468,2629,D005776,1.0
27843468,4437,D005776,1.0
27843468,6348,D005776,1.0
27843468,6351,D005776,1.0
27843468,6362,D005776,1.0
27843468,9332,D005776,1.0
27880818,6566,D004342,1.0
27880818,6566,D007662,1.0
27956798,284,D019698,1.0
27956798,285,D004194,1.0
27956798,285,D005355,1.0
27956798,285,D008103,1.0
27956798,285,D008107,1.0
27956798,285,D008108,1.0
27956798,285,D009360,1.0
27956798,285,D009369,1.0
27956798,285,D019698,1.0
27956798,285,D056486,1.0
27990348,1956,D002289,1.0
28277979,23028,C563168,1.0
28277979,23028,D005909,1.0
28277979,23028,D007938,1.0
28277979,23028,D007947,1.0
28277979,23028,D009369,1.0
28277979,23028,D010051,1.0
28277979,23028,D015470,1.0
28277979,23028,D019636,1.0
28277979,23028,D055752,1.0
28277979,23028,OMIM:300855,1.0
28604785,397216,D015430,1.0
28689374,6582,D007674,1.0
28689374,9356,D005198,1.0
28689374,9356,D007674,1.0
28689374,9356,D064420,1.0
28689374,9376,D007674,1.0
28777375,598,C538614,1.0
28777375,598,D002545,1.0
28777375,598,D003324,1.0
28777375,598,D003643,1.0
28777375,598,D007511,1.0
28777375,598,D008223,1.0
28777375,598,D009369,1.0
28777375,598,D009410,1.0
28777375,598,D020258,1.0
28777375,598,D064420,1.0
28811962,4919,C563168,1.0
28811962,4919,D001943,1.0
28811962,4919,D005909,1.0
28811962,4919,D008113,1.0
28811962,4919,D008545,1.0
28811962,4919,D009362,1.0
28811962,4919,D010051,1.0
28811962,4919,D010190,1.0
28811962,4919,D010195,1.0
28811962,4919,D013274,1.0
28811962,4919,D015451,1.0
28811962,4919,D019337,1.0
28811962,4919,D020522,1.0
28811962,4919,D064420,1.0
28837387,1808,D006930,1.0
28837387,4763,C537392,1.0
28837387,4763,D000067404,1.0
28837387,4763,D000067877,1.0
28837387,4763,D001008,1.0
28837387,4763,D001321,1.0
28837387,4763,D003072,1.0
28837387,4763,D006930,1.0
28837387,4763,D009422,1.0
28837387,4763,D009437,1.0
28837387,4763,D009461,1.0
28837387,4763,D010146,1.0
28837387,4763,D010523,1.0
28837387,4763,D012640,1.0
28837387,4763,D012678,1.0
28837387,4763,D013001,1.0
28837387,4763,D019958,1.0
28837387,4763,D059226,1.0
28883914,5016,C537182,1.0
28883914,5016,D006562,1.0
28883914,5016,D007674,1.0
28883914,5016,D020964,1.0
29160859,57674,D000783,1.0
29160859,57674,D001157,1.0
29160859,57674,D002532,1.0
29160859,57674,D003251,1.0
29160859,57674,D004194,1.0
29160859,57674,D006470,1.0
29160859,57674,D007511,1.0
29160859,57674,D009072,1.0
29213072,4282,D003924,1.0
29393430,79727,D001943,1.0
29393430,79727,D002294,1.0
29393430,79727,D005355,1.0
29393430,79727,D006528,1.0
29393430,79727,D007414,1.0
29393430,79727,D011472,1.0
29393430,79727,D015179,1.0
29551768,8517,D007249,1.0
29551768,8517,D008113,1.0
29551768,898,D007249,1.0
29551768,898,D008113,1.0
29551768,898,D056486,1.0
29551768,898,D063646,1.0
29557375,581,D007238,1.0
29557375,596,D007238,1.0
29557375,836,D007238,1.0
29557375,842,D007238,1.0
29563864,23336,D009410,1.0
29563864,598,D009410,1.0
29563864,598,D020258,1.0
29563864,6622,D000080874,1.0
29563864,6622,D000544,1.0
29563864,6622,D001284,1.0
29563864,6622,D003704,1.0
29563864,6622,D006331,1.0
29563864,6622,D009410,1.0
29563864,6622,D009422,1.0
29563864,6622,D010300,1.0
29563864,6622,D019636,1.0
29563864,6622,D020258,1.0
29563864,6622,D028361,1.0
29563864,6622,D064420,1.0
29568308,816705,D008607,1.0
29662784,649,D010003,1.0
29662784,7040,D010003,1.0
29740160,10113,D007938,1.0
29740160,10113,D016301,1.0
29740160,8600,D007938,1.0
29740160,8600,D016301,1.0
29755715,354,D009771,1.0
29755715,354,D011471,1.0
29809055,4282,D003141,1.0
29809055,4282,D007239,1.0
29809055,4282,D007249,1.0
29809055,4282,D014376,1.0
29809055,4282,D014397,1.0
29849496,3569,D005355,1.0
29849496,3569,D007249,1.0
29849496,4353,D005355,1.0
29849496,7040,D005355,1.0
29849496,7124,D005355,1.0
29876020,10882,D001943,1.0
29937924,619501,D006528,0.5
29938207,2099,D001943,1.0
29938207,3159,D001943,1.0
29955035,10855,D001847,1.0
29955035,10855,D002340,1.0
29955035,10855,D005355,1.0
29955035,10855,D006086,1.0
29955035,10855,D006504,1.0
29955035,10855,D007249,1.0
29955035,10855,D007674,1.0
29955035,10855,D007938,1.0
29955035,10855,D009101,1.0
29955035,10855,D009362,1.0
29955035,10855,D012509,1.0
29955035,10855,D013274,1.0
29955035,10855,D019337,1.0
29955035,10855,D054198,1.0
29955035,10855,D063646,1.0
29968748,5245,D000860,1.0
29968748,5245,D009410,1.0
29968748,5245,D012640,1.0
29968748,759,D000860,1.0
29968748,761,D000860,1.0
29979707,10645,C536778,1.0
29979707,3162,C536778,1.0
29979707,4778,C536778,1.0
29979707,5293,C536778,1.0
30024510,2678,D000789,1.0
30024510,2678,D001660,1.0
30024510,2678,D002318,1.0
30024510,2678,D003324,1.0
30024510,2678,D003643,1.0
30024510,2678,D003920,1.0
30024510,2678,D006333,1.0
30024510,2678,D007249,1.0
30024510,2678,D008107,1.0
30024510,2678,D008659,1.0
30024510,2678,D009202,1.0
30024510,2678,D009203,1.0
30024510,2678,D009765,1.0
30024510,2678,D012421,1.0
30024510,2678,D015228,1.0
30024510,2678,D017093,1.0
30024510,2678,D020521,1.0
30024510,2678,D050197,1.0
30024510,2678,D058226,1.0
30062756,29126,D001745,1.0
30062756,29126,D006086,1.0
30062756,29126,D008382,1.0
30062756,29126,D009362,1.0
30062756,29126,D009369,1.0
30062756,29126,D010300,1.0
30062756,29126,D012141,1.0
30062756,29126,D014526,1.0
30062756,29126,D015179,1.0
30200437,590,D064420,1.0
30200437,590,OMIM:617394,0.5
30242205,4069,D009765,1.0
30282812,1111,D012512,1.0
30282812,1111,D012512,1.0
30282812,1978,D012512,1.0
30319825,350,D016884,1.0
30321699,2908,D000437,1.0
30321699,5599,D000437,1.0
30349541,868,D004342,1.0
30349541,868,D004679,1.0
30349541,868,D004681,1.0
30349541,868,D009103,1.0
30349541,868,D012598,1.0
30365064,3985,D007247,1.0
30365064,55124,D007247,1.0
30468149,249,D007014,1.0
30468149,249,D007014,1.0
30643658,921,D006527,1.0
30706071,2186,D001749,1.0
30706071,2186,D001943,1.0
30706071,2186,D006528,1.0
30706071,2186,D007239,1.0
30706071,2186,D007951,1.0
30706071,2186,D008175,1.0
30706071,2186,D008545,1.0
30706071,2186,D009369,1.0
30706071,2186,D010190,1.0
30706071,2186,D015179,1.0
30706071,2186,D015464,1.0
30744561,3073,D015431,1.0
30884810,5208,D013964,1.0
30884810,673,D013964,1.0
30884810,7015,D013964,1.0
30906313,30682,D009223,1.0
30906313,5594,D009223,1.0
30971222,1401,D051359,1.0
30987660,7157,D008113,1.0
31000713,22835,D001102,1.0
31000713,22835,D001927,1.0
31000713,22835,D007249,1.0
31008371,8074,D051436,0.5
31015328,887662,D004342,1.0
31039423,387140,C536227,1.0
31039423,387140,C536572,1.0
31039423,387140,C562869,1.0
31039423,387140,D001855,1.0
31039423,387140,D001943,1.0
31039423,387140,D002318,1.0
31039423,387140,D011658,1.0
31039423,387140,D015470,1.0
31039423,387140,D019337,1.0
31143309,3077,D000740,1.0
31143309,3077,D001008,1.0
31143309,3077,D006432,1.0
31143309,3077,D006471,1.0
31143309,3077,D006528,1.0
31143309,3077,D007676,1.0
31143309,3077,D008103,1.0
31143309,3077,D008595,1.0
31143309,3077,D009196,1.0
31143309,3077,D011086,1.0
31143309,3077,D011087,1.0
31143309,3077,D019965,1.0
31143309,3077,D055728,1.0
31221168,367,D001523,1.0
31221168,367,D011471,1.0
31293647,100124700,D002289,1.0
31293647,100316868,D002289,1.0
31293647,100750225,D002289,1.0
31293647,10365,D002289,1.0
31293647,116986,D002289,1.0
31293647,1499,D002289,1.0
31293647,1956,D002289,1.0
31293647,221883,D002289,1.0
31293647,2306,D002289,1.0
31293647,238,D002289,1.0
31293647,26524,D002289,1.0
31293647,27436,D002289,1.0
31293647,29126,D002289,1.0
31293647,302,D002289,1.0
31293647,3207,D002289,1.0
31293647,3569,D002289,0.5
31293647,3702,D002289,1.0
31293647,378938,D002289,1.0
31293647,3845,D002289,1.0
31293647,3845,D008175,1.0
31293647,400500,D002289,1.0
31293647,4072,D002289,1.0
31293647,4102,D002289,1.0
31293647,5290,D002289,1.0
31293647,53340,D002289,1.0
31293647,5729,D002289,1.0
31293647,574,D002289,1.0
31293647,29126,D002289,1.0
31293647,5906,D002289,1.0
31293647,5979,D002289,1.0
31293647,6098,D002289,1.0
31293647,673,D002289,1.0
31293647,6794,D002289,1.0
31293647,6932,D002289,1.0
31293647,7040,D002289,1.0
31293647,81704,D002289,1.0
31293647,8852,D002289,1.0
31331342,7124,D001171,1.0
31331342,7124,D001928,1.0
31331342,7124,D007249,1.0
31331342,7124,D009133,1.0
31430968,4780,D006009,1.0
31675356,184803,D007938,1.0
31747387,1021,D013274,1.0
31797087,142,D010051,1.0
31797087,5889,D010051,1.0
31797087,672,D002292,1.0
31797087,672,D010051,1.0
31797087,79728,D010051,1.0
31797087,83990,D010051,1.0
31832083,2169,D000007,1.0
31832083,2169,D004828,1.0
31832083,2169,D007410,1.0
31832083,2169,D012771,1.0
31832083,2169,D014947,1.0
31850125,27032,D016506,1.0
31852336,5621,D034081,1.0
31890722,404677,D007249,1.0
31890722,404677,D015658,1.0
32034638,59272,C000657245,1.0
32034638,59272,D055371,1.0
32131898,10059,D000544,1.0
32131898,5422,D000544,1.0
32131898,7416,D000544,1.0
32186711,1636,C000657245,1.0
32186711,59272,C000657245,1.0
32198163,59272,C000657245,1.0
32198163,59272,D012120,1.0
32198163,59272,D012120,1.0
32203104,5034,C566067,1.0
32203104,5034,D000071069,1.0
32203104,5034,D000079225,1.0
32203104,5034,D000080346,1.0
32203104,5034,D000544,1.0
32203104,5034,D000755,1.0
32203104,5034,D000860,1.0
32203104,5034,D001791,1.0
32203104,5034,D002318,1.0
32203104,5034,D002544,1.0
32203104,5034,D003141,1.0
32203104,5034,D003643,1.0
32203104,5034,D003920,1.0
32203104,5034,D004194,1.0
32203104,5034,D004915,1.0
32203104,5034,D005909,1.0
32203104,5034,D006333,1.0
32203104,5034,D006816,1.0
32203104,5034,D007249,1.0
32203104,5034,D007511,1.0
32203104,5034,D008641,1.0
32203104,5034,D009101,1.0
32203104,5034,D009203,1.0
32203104,5034,D009336,1.0
32203104,5034,D009369,1.0
32203104,5034,D010051,1.0
32203104,5034,D010300,1.0
32203104,5034,D013927,1.0
32203104,5034,D014657,1.0
32203104,5034,D014842,1.0
32203104,5034,D015470,1.0
32203104,5034,D015658,1.0
32203104,5034,D019636,1.0
32203104,5034,D020258,1.0
32203104,5034,D020521,1.0
32203104,5034,D022861,1.0
32203104,5034,D050197,1.0
32205092,3717,C000657245,1.0
32205232,3569,C000657245,1.0
32205232,3627,C000657245,1.0
32205232,6347,C000657245,1.0
32211513,10273,D001259,1.0
32211513,10273,D001321,1.0
32211513,10273,D002524,1.0
32211513,10273,D002526,1.0
32211513,10273,D005911,1.0
32211513,10273,D017827,1.0
32226348,3558,D000506,1.0
32231330,59272,C000657245,1.0
32231330,59272,D006973,0.5
32231330,59272,D012128,1.0
32231330,59272,D055370,1.0
32231330,59272,D055371,1.0
32233935,59272,C000657245,1.0
32233935,59272,D003643,1.0
32233935,59272,D005355,1.0
32233935,59272,D011654,1.0
32233935,59272,D012128,1.0
32233935,59272,D015212,1.0
32233935,59272,D016638,0.5
32234467,3569,D001171,1.0
32234467,3569,D007249,1.0
32242950,1401,C000657245,1.0
32244779,1655,D018352,1.0
32244779,183,D018352,1.0
32244779,1915,D018352,1.0
32244779,4170,D018352,1.0
32244779,59272,D001102,1.0
32244779,59272,D018352,1.0
32244779,7113,D018352,1.0
32264889,1739,D000081483,1.0
32264889,1739,D001943,1.0
32264889,1739,D007938,1.0
32264889,1739,D009361,1.0
32264889,1739,D009369,1.0
32264889,1739,D011125,1.0
32264889,1739,D030361,1.0
32264889,1739,D063646,1.0
32264922,1636,C000657245,1.0
32264922,59272,C000657245,1.0
32279908,1636,C000657245,0.5
32279908,59272,C000657245,1.0
32279908,59272,D018352,1.0
32281668,1401,C000657245,1.0
32291137,3569,C000657245,1.0
32291137,7291,C000657245,1.0
32293716,1401,C000657245,1.0
32313880,5058,C000657245,1.0
32313880,5058,D001102,1.0
32313880,5058,D007249,1.0
32313880,5058,D008288,1.0
32313880,5058,D018352,1.0
32313880,5058,D045169,1.0
32316063,2244,C000657245,1.0
32321856,8673700,C000657245,1.0
32327200,59272,C000657245,1.0
32327200,59272,C536439,1.0
32327200,59272,D012128,1.0
32333991,1636,D003555,1.0
32335068,285,C000657245,1.0
32335068,285,D003643,1.0
32335068,285,D004342,1.0
32335068,285,D007239,1.0
32335068,285,D012128,1.0
32335068,285,D012769,1.0
32335068,285,D012772,1.0
32335068,285,D055370,1.0
32339777,3569,C000657245,1.0
32339777,3605,C000657245,1.0
32339777,3605,D001102,1.0
32339777,3605,D011565,1.0
32341442,59272,C000657245,1.0
32341442,59272,D001102,1.0
32341442,59272,D002311,1.0
32341442,59272,D002318,1.0
32341442,59272,D003643,1.0
32341442,59272,D003928,1.0
32341442,59272,D005355,1.0
32341442,59272,D006331,1.0
32341442,59272,D006332,1.0
32341442,59272,D006333,1.0
32341442,59272,D006973,1.0
32341442,59272,D007674,1.0
32341442,59272,D008171,1.0
32341442,59272,D009203,1.0
32341442,59272,D009205,1.0
32341442,59272,D010195,1.0
32341442,59272,D012128,1.0
32341442,59272,D012141,1.0
32341442,59272,D016638,1.0
32341442,59272,D018805,1.0
32341442,59272,D051436,1.0
32341442,59272,D055370,1.0
32341442,59272,D055371,1.0
32341442,59272,D058065,1.0
32354045,60674,C538614,1.0
32354045,60674,D001749,1.0
32354045,60674,D001943,1.0
32354045,60674,D005355,1.0
32354045,60674,D006323,1.0
32354045,60674,D006528,1.0
32354045,60674,D008175,1.0
32354045,60674,D009369,1.0
32354045,60674,D009503,1.0
32354045,60674,D011471,1.0
32354045,60674,D012516,1.0
32354045,60674,D013274,1.0
32354045,60674,D015470,1.0
32354045,60674,D050197,1.0
32354045,60674,D063646,1.0
32359080,59272,C000657245,1.0
32359080,59272,D000034,1.0
32359080,59272,D001102,1.0
32359080,59272,D011014,1.0
32362813,351,D000544,1.0
32362813,351,D003072,1.0
